15:51:16 scenario.file.loc[Ljava.lang.String;@543e710e
15:51:16 loading BDD file: scenarios/suite1.bdd
15:51:16 total test found: 1
15:51:16 

Executing scenario: QEO-1145 - Verify the functionality of Travel request section on the Home page
15:51:16 pkg: com.qmetry.qaf.automation.step
15:51:17 pkg: com.loginpageactivity
15:51:17 Found duplicate step to load [] with [lower] prority then []
15:51:17 Invoking Teststep: Given user navigate to login page of site
15:51:54 Completed Teststep: Given user navigate to login page of site
15:51:54 Invoking Teststep: When user enter username as '${Manager.username}' and password as '${Manager.password}' with arguments: [${Manager.username}, ${Manager.password}]
15:51:55 Invoking Teststep: sendKeys {text} into {loc} with arguments: [tushit.shah, txt.password.homepage]
15:51:55 Completed Teststep: sendKeys {text} into {loc} with arguments: [tushit.shah, txt.password.homepage]
15:51:55 Completed Teststep: When user enter username as 'tushit.shah' and password as 'tushit.shah' with arguments: [${Manager.username}, ${Manager.password}]
15:51:55 Invoking Teststep: AND user should click on login button
15:52:01 Completed Teststep: AND user should click on login button
15:52:01 Invoking Teststep: And user select manager view
15:52:13 Completed Teststep: And user select manager view
15:52:13 Invoking Teststep: And user click on travel tab and check status
15:52:23 Invoking Teststep: mouse move on {loc} with arguments: [box.visible]
15:52:23 Completed Teststep: mouse move on {loc} with arguments: [box.visible]
15:52:24 Invoking Teststep: click on {loc} with arguments: [btn.viewstatus]
15:52:24 Completed Teststep: click on {loc} with arguments: [btn.viewstatus]
15:52:29 Completed Teststep: And user click on travel tab and check status
15:52:29 Invoking Teststep: And user click on approve
15:52:39 Failure Teststep: And user click on approve
org.openqa.selenium.WebDriverException: unknown error: Element <button class="btn_prim_1 m-r-10 ng-scope" type="button" ng-if="((trCtrl.travelDetailsVal.status == '0' &amp;&amp; trCtrl.managerPermission.approve_reject_travel_request == 1) || (trCtrl.travelDetailsVal.status != '3' &amp;&amp; trCtrl.permission.approve_reject_travel_request == 1))" ng-click="trCtrl.approveTravelRequest(trCtrl.travelDetailsVal.trvl_travel_request_id)" style="">...</button> is not clickable at point (140, 535). Other element would receive the click: <div class="web_site_footer">...</div>
  (Session info: chrome=67.0.3396.99)
  (Driver info: chromedriver=2.39.562718 (9a2698cba08cf5a471a29d30c8b3e12becabb0e9),platform=Windows NT 10.0.16299 x86_64) (WARNING: The server did not provide any stacktrace information)
Command duration or timeout: 89 milliseconds
Build info: version: '2.53.0', revision: '35ae25b1534ae328c771e0856c93e187490ca824', time: '2016-03-15 10:43:46'
System info: host: 'ICPL12779', ip: '172.17.155.113', os.name: 'Windows 10', os.arch: 'amd64', os.version: '10.0', java.version: '1.8.0_161'
Driver info: com.qmetry.qaf.automation.ui.webdriver.QAFExtendedWebDriver
Capabilities [{applicationCacheEnabled=false, rotatable=false, mobileEmulationEnabled=false, networkConnectionEnabled=false, chrome={chromedriverVersion=2.39.562718 (9a2698cba08cf5a471a29d30c8b3e12becabb0e9), userDataDir=C:\Users\DAKSHA~1.SAP\AppData\Local\Temp\scoped_dir16476_23311}, takesHeapSnapshot=true, pageLoadStrategy=normal, databaseEnabled=false, handlesAlerts=true, hasTouchScreen=false, version=67.0.3396.99, platform=XP, browserConnectionEnabled=false, nativeEvents=true, acceptSslCerts=false, acceptInsecureCerts=false, locationContextEnabled=true, webStorageEnabled=true, browserName=chrome, takesScreenshot=true, javascriptEnabled=true, cssSelectorsEnabled=true, setWindowRect=true, unexpectedAlertBehaviour=}]
Session ID: 25cedee995806c991dd3a99c5b21ac18
	at sun.reflect.NativeConstructorAccessorImpl.newInstance0(Native Method)
	at sun.reflect.NativeConstructorAccessorImpl.newInstance(NativeConstructorAccessorImpl.java:62)
	at sun.reflect.DelegatingConstructorAccessorImpl.newInstance(DelegatingConstructorAccessorImpl.java:45)
	at java.lang.reflect.Constructor.newInstance(Constructor.java:423)
	at org.openqa.selenium.remote.ErrorHandler.createThrowable(ErrorHandler.java:206)
	at org.openqa.selenium.remote.ErrorHandler.throwIfResponseFailed(ErrorHandler.java:158)
	at org.openqa.selenium.remote.RemoteWebDriver.execute(RemoteWebDriver.java:678)
	at com.qmetry.qaf.automation.ui.webdriver.QAFExtendedWebDriver.executeWitoutLog(QAFExtendedWebDriver.java:256)
	at com.qmetry.qaf.automation.ui.webdriver.QAFExtendedWebElement.execute(QAFExtendedWebElement.java:252)
	at org.openqa.selenium.remote.RemoteWebElement.click(RemoteWebElement.java:85)
	at com.qmetry.qaf.automation.step.CommonStep.click_aroundBody50(CommonStep.java:648)
	at com.qmetry.qaf.automation.step.CommonStep$AjcClosure51.run(CommonStep.java:1)
	at org.aspectj.runtime.reflect.JoinPointImpl.proceed(JoinPointImpl.java:149)
	at com.qmetry.qaf.automation.step.JavaStepReporter.javaTestStep(JavaStepReporter.java:101)
	at com.qmetry.qaf.automation.step.CommonStep.click(CommonStep.java:647)
	at com.loginpageactivity.steps.LoginActivity.user_click_on_approve(LoginActivity.java:121)
	at sun.reflect.NativeMethodAccessorImpl.invoke0(Native Method)
	at sun.reflect.NativeMethodAccessorImpl.invoke(NativeMethodAccessorImpl.java:62)
	at sun.reflect.DelegatingMethodAccessorImpl.invoke(DelegatingMethodAccessorImpl.java:43)
	at java.lang.reflect.Method.invoke(Method.java:498)
	at com.qmetry.qaf.automation.step.JavaStep.doExecute(JavaStep.java:160)
	at com.qmetry.qaf.automation.step.BaseTestStep.execute(BaseTestStep.java:149)
	at com.qmetry.qaf.automation.step.StringTestStep.execute(StringTestStep.java:134)
	at com.qmetry.qaf.automation.step.client.Scenario.execute(Scenario.java:167)
	at com.qmetry.qaf.automation.step.client.Scenario.scenario(Scenario.java:219)
	at sun.reflect.NativeMethodAccessorImpl.invoke0(Native Method)
	at sun.reflect.NativeMethodAccessorImpl.invoke(NativeMethodAccessorImpl.java:62)
	at sun.reflect.DelegatingMethodAccessorImpl.invoke(DelegatingMethodAccessorImpl.java:43)
	at java.lang.reflect.Method.invoke(Method.java:498)
	at org.testng.internal.MethodInvocationHelper.invokeMethod(MethodInvocationHelper.java:104)
	at org.testng.internal.Invoker.invokeMethod(Invoker.java:645)
	at org.testng.internal.Invoker.invokeTestMethod(Invoker.java:851)
	at org.testng.internal.Invoker.invokeTestMethods(Invoker.java:1177)
	at org.testng.internal.TestMethodWorker.invokeTestMethods(TestMethodWorker.java:129)
	at org.testng.internal.TestMethodWorker.run(TestMethodWorker.java:112)
	at org.testng.TestRunner.privateRun(TestRunner.java:781)
	at org.testng.TestRunner.run(TestRunner.java:635)
	at org.testng.SuiteRunner.runTest(SuiteRunner.java:387)
	at org.testng.SuiteRunner.runSequentially(SuiteRunner.java:382)
	at org.testng.SuiteRunner.privateRun(SuiteRunner.java:340)
	at org.testng.SuiteRunner.run(SuiteRunner.java:289)
	at org.testng.SuiteRunnerWorker.runSuite(SuiteRunnerWorker.java:52)
	at org.testng.SuiteRunnerWorker.run(SuiteRunnerWorker.java:86)
	at org.testng.TestNG.runSuitesSequentially(TestNG.java:1293)
	at org.testng.TestNG.runSuitesLocally(TestNG.java:1218)
	at org.testng.TestNG.runSuites(TestNG.java:1133)
	at org.testng.TestNG.run(TestNG.java:1104)
	at org.testng.remote.AbstractRemoteTestNG.run(AbstractRemoteTestNG.java:114)
	at org.testng.remote.RemoteTestNG.initAndRun(RemoteTestNG.java:251)
	at org.testng.remote.RemoteTestNG.main(RemoteTestNG.java:77)
15:52:39 Completed Teststep: And user click on approve
15:52:39 Competed scenario: QEO-1145 with status FAILURE
