17:24:30 scenario.file.loc[Ljava.lang.String;@543e710e
17:24:30 loading BDD file: scenarios/suite1.bdd
17:24:30 total test found: 1
17:24:31 

Executing scenario: QEO-1148 - To verify the Approval for Bright Spark
17:24:31 pkg: com.qmetry.qaf.automation.step
17:24:31 pkg: com.loginpageactivity
17:24:31 Found duplicate step to load [] with [lower] prority then []
17:24:31 Invoking Teststep: Given user navigate to login page of site
17:25:01 Completed Teststep: Given user navigate to login page of site
17:25:01 Invoking Teststep: When user enter username as '${Lead.username}' and password as '${Lead.password}' with arguments: [${Lead.username}, ${Lead.password}]
17:25:03 Invoking Teststep: sendKeys {text} into {loc} with arguments: [Test@1234, txt.password.homepage]
17:25:03 Completed Teststep: sendKeys {text} into {loc} with arguments: [Test@1234, txt.password.homepage]
17:25:03 Completed Teststep: When user enter username as 'ashish.biradar1' and password as 'Test@1234' with arguments: [${Lead.username}, ${Lead.password}]
17:25:03 Invoking Teststep: AND user should click on login button
17:25:07 Completed Teststep: AND user should click on login button
17:25:07 Invoking Teststep: Then user logged in successfully
17:25:12 Completed Teststep: Then user logged in successfully
17:25:12 Invoking Teststep: AND user click on R&R tab and user click on nominate tab and user click on brightspark tab
17:25:15 Invoking Teststep: click on {loc} with arguments: [tab.nominate]
17:25:15 Completed Teststep: click on {loc} with arguments: [tab.nominate]
17:25:17 Invoking Teststep: click on {loc} with arguments: [tab.brightspark]
17:25:18 Completed Teststep: click on {loc} with arguments: [tab.brightspark]
17:25:19 Completed Teststep: AND user click on R&R tab and user click on nominate tab and user click on brightspark tab
17:25:19 Invoking Teststep: AND user nominate Employee for bright spark
17:25:19 Invoking Teststep: click on {loc} with arguments: [img.card]
17:25:20 Completed Teststep: click on {loc} with arguments: [img.card]
17:25:20 Invoking Teststep: click on {loc} with arguments: [dropdown.grp]
17:25:20 Completed Teststep: click on {loc} with arguments: [dropdown.grp]
17:25:21 Invoking Teststep: sendKeys {text} into {loc} with arguments: [210 - EQS - Automation, box.search]
17:25:22 Completed Teststep: sendKeys {text} into {loc} with arguments: [210 - EQS - Automation, box.search]
17:25:25 Invoking Teststep: click on {loc} with arguments: [txt.dropdown]
17:25:25 Completed Teststep: click on {loc} with arguments: [txt.dropdown]
17:25:26 Invoking Teststep: click on {loc} with arguments: [dropdown.band]
17:25:26 Completed Teststep: click on {loc} with arguments: [dropdown.band]
17:25:27 Invoking Teststep: wait until {loc} to be visible with arguments: [txt.dropdown.band]
17:25:27 Completed Teststep: wait until {loc} to be visible with arguments: [txt.dropdown.band]
17:25:27 Invoking Teststep: mouse move on {loc} with arguments: [txt.dropdown.band]
17:25:27 Completed Teststep: mouse move on {loc} with arguments: [txt.dropdown.band]
17:25:30 Invoking Teststep: click on {loc} with arguments: [txt.dropdown.band]
17:25:31 Completed Teststep: click on {loc} with arguments: [txt.dropdown.band]
17:25:32 Invoking Teststep: click on {loc} with arguments: [dropdown.nominee]
17:25:32 Completed Teststep: click on {loc} with arguments: [dropdown.nominee]
17:25:35 Invoking Teststep: wait until {loc} to be visible with arguments: [txt.nominee.dropdown]
17:25:35 Completed Teststep: wait until {loc} to be visible with arguments: [txt.nominee.dropdown]
17:25:35 Invoking Teststep: click on {loc} with arguments: [txt.nominee.dropdown]
17:25:35 Completed Teststep: click on {loc} with arguments: [txt.nominee.dropdown]
17:25:38 Invoking Teststep: click on {loc} with arguments: [dropdown.project]
17:25:40 Completed Teststep: click on {loc} with arguments: [dropdown.project]
17:25:40 Invoking Teststep: sendKeys {text} into {loc} with arguments: [Test Project 5, box.search.project]
17:25:42 Completed Teststep: sendKeys {text} into {loc} with arguments: [Test Project 5, box.search.project]
17:25:45 Invoking Teststep: wait until {loc} to be visible with arguments: [txt.dropdown.project]
17:25:45 Completed Teststep: wait until {loc} to be visible with arguments: [txt.dropdown.project]
17:25:46 Invoking Teststep: mouse move on {loc} with arguments: [txt.dropdown.project]
17:25:46 Completed Teststep: mouse move on {loc} with arguments: [txt.dropdown.project]
17:25:47 Invoking Teststep: click on {loc} with arguments: [txt.dropdown.project]
17:25:47 Completed Teststep: click on {loc} with arguments: [txt.dropdown.project]
17:25:48 Invoking Teststep: sendKeys {text} into {loc} with arguments: [abc, txt.challenge]
17:25:48 Completed Teststep: sendKeys {text} into {loc} with arguments: [abc, txt.challenge]
17:25:48 Invoking Teststep: sendKeys {text} into {loc} with arguments: [abc, txt.solution]
17:25:48 Completed Teststep: sendKeys {text} into {loc} with arguments: [abc, txt.solution]
17:25:48 Invoking Teststep: sendKeys {text} into {loc} with arguments: [abc, txt.benefits]
17:25:49 Completed Teststep: sendKeys {text} into {loc} with arguments: [abc, txt.benefits]
17:25:49 Invoking Teststep: sendKeys {text} into {loc} with arguments: [abc, txt.rationale]
17:25:49 Completed Teststep: sendKeys {text} into {loc} with arguments: [abc, txt.rationale]
17:25:49 Invoking Teststep: click on {loc} with arguments: [btn.post]
17:25:49 Completed Teststep: click on {loc} with arguments: [btn.post]
17:25:51 Invoking Teststep: mouse move on {loc} with arguments: [btn.logout.nominationpage]
17:25:51 Completed Teststep: mouse move on {loc} with arguments: [btn.logout.nominationpage]
17:25:54 Invoking Teststep: click on {loc} with arguments: [btn.logout.nominationpage]
17:25:54 Failure Teststep: click on {loc} with arguments: [btn.logout.nominationpage]
com.qmetry.qaf.automation.step.JavaStepReporter$JPThrowable: org.openqa.selenium.WebDriverException: unknown error: Element <div title="Log out" id="logout_btn1" class="logout_btn_adjust1 border_left header_logout_container" ng-click="ShellCtrl.logout();">...</div> is not clickable at point (1310, 33). Other element would receive the click: <span ng-bind-html="message.content" class="ng-binding ng-scope">...</span>
  (Session info: chrome=67.0.3396.99)
  (Driver info: chromedriver=2.39.562718 (9a2698cba08cf5a471a29d30c8b3e12becabb0e9),platform=Windows NT 10.0.16299 x86_64) (WARNING: The server did not provide any stacktrace information)
Command duration or timeout: 57 milliseconds
Build info: version: '2.53.0', revision: '35ae25b1534ae328c771e0856c93e187490ca824', time: '2016-03-15 10:43:46'
System info: host: 'ICPL12779', ip: '172.17.155.113', os.name: 'Windows 10', os.arch: 'amd64', os.version: '10.0', java.version: '1.8.0_161'
Driver info: com.qmetry.qaf.automation.ui.webdriver.QAFExtendedWebDriver
Capabilities [{applicationCacheEnabled=false, rotatable=false, mobileEmulationEnabled=false, networkConnectionEnabled=false, chrome={chromedriverVersion=2.39.562718 (9a2698cba08cf5a471a29d30c8b3e12becabb0e9), userDataDir=C:\Users\DAKSHA~1.SAP\AppData\Local\Temp\scoped_dir3492_23}, takesHeapSnapshot=true, pageLoadStrategy=normal, databaseEnabled=false, handlesAlerts=true, hasTouchScreen=false, version=67.0.3396.99, platform=XP, browserConnectionEnabled=false, nativeEvents=true, acceptSslCerts=false, acceptInsecureCerts=false, locationContextEnabled=true, webStorageEnabled=true, browserName=chrome, takesScreenshot=true, javascriptEnabled=true, cssSelectorsEnabled=true, setWindowRect=true, unexpectedAlertBehaviour=}]
Session ID: 6ebaae5517c9a67ec2121a3d3d212b02
	at com.qmetry.qaf.automation.step.JavaStepReporter$MockJavaStep.doExecute(JavaStepReporter.java:144)
	at com.qmetry.qaf.automation.step.BaseTestStep.execute(BaseTestStep.java:149)
	at com.qmetry.qaf.automation.step.JavaStepReporter.javaTestStep(JavaStepReporter.java:88)
	at com.qmetry.qaf.automation.step.CommonStep.click(CommonStep.java:647)
	at com.loginpageactivity.steps.Nomination.user_nominate_Employee_for_bright_spark(Nomination.java:81)
	at sun.reflect.NativeMethodAccessorImpl.invoke0(Native Method)
	at sun.reflect.NativeMethodAccessorImpl.invoke(NativeMethodAccessorImpl.java:62)
	at sun.reflect.DelegatingMethodAccessorImpl.invoke(DelegatingMethodAccessorImpl.java:43)
	at java.lang.reflect.Method.invoke(Method.java:498)
	at com.qmetry.qaf.automation.step.JavaStep.doExecute(JavaStep.java:160)
	at com.qmetry.qaf.automation.step.BaseTestStep.execute(BaseTestStep.java:149)
	at com.qmetry.qaf.automation.step.StringTestStep.execute(StringTestStep.java:134)
	at com.qmetry.qaf.automation.step.client.Scenario.execute(Scenario.java:167)
	at com.qmetry.qaf.automation.step.client.Scenario.scenario(Scenario.java:219)
	at sun.reflect.NativeMethodAccessorImpl.invoke0(Native Method)
	at sun.reflect.NativeMethodAccessorImpl.invoke(NativeMethodAccessorImpl.java:62)
	at sun.reflect.DelegatingMethodAccessorImpl.invoke(DelegatingMethodAccessorImpl.java:43)
	at java.lang.reflect.Method.invoke(Method.java:498)
	at org.testng.internal.MethodInvocationHelper.invokeMethod(MethodInvocationHelper.java:104)
	at org.testng.internal.Invoker.invokeMethod(Invoker.java:645)
	at org.testng.internal.Invoker.invokeTestMethod(Invoker.java:851)
	at org.testng.internal.Invoker.invokeTestMethods(Invoker.java:1177)
	at org.testng.internal.TestMethodWorker.invokeTestMethods(TestMethodWorker.java:129)
	at org.testng.internal.TestMethodWorker.run(TestMethodWorker.java:112)
	at org.testng.TestRunner.privateRun(TestRunner.java:781)
	at org.testng.TestRunner.run(TestRunner.java:635)
	at org.testng.SuiteRunner.runTest(SuiteRunner.java:387)
	at org.testng.SuiteRunner.runSequentially(SuiteRunner.java:382)
	at org.testng.SuiteRunner.privateRun(SuiteRunner.java:340)
	at org.testng.SuiteRunner.run(SuiteRunner.java:289)
	at org.testng.SuiteRunnerWorker.runSuite(SuiteRunnerWorker.java:52)
	at org.testng.SuiteRunnerWorker.run(SuiteRunnerWorker.java:86)
	at org.testng.TestNG.runSuitesSequentially(TestNG.java:1293)
	at org.testng.TestNG.runSuitesLocally(TestNG.java:1218)
	at org.testng.TestNG.runSuites(TestNG.java:1133)
	at org.testng.TestNG.run(TestNG.java:1104)
	at org.testng.remote.AbstractRemoteTestNG.run(AbstractRemoteTestNG.java:114)
	at org.testng.remote.RemoteTestNG.initAndRun(RemoteTestNG.java:251)
	at org.testng.remote.RemoteTestNG.main(RemoteTestNG.java:77)
Caused by: org.openqa.selenium.WebDriverException: unknown error: Element <div title="Log out" id="logout_btn1" class="logout_btn_adjust1 border_left header_logout_container" ng-click="ShellCtrl.logout();">...</div> is not clickable at point (1310, 33). Other element would receive the click: <span ng-bind-html="message.content" class="ng-binding ng-scope">...</span>
  (Session info: chrome=67.0.3396.99)
  (Driver info: chromedriver=2.39.562718 (9a2698cba08cf5a471a29d30c8b3e12becabb0e9),platform=Windows NT 10.0.16299 x86_64) (WARNING: The server did not provide any stacktrace information)
Command duration or timeout: 57 milliseconds
Build info: version: '2.53.0', revision: '35ae25b1534ae328c771e0856c93e187490ca824', time: '2016-03-15 10:43:46'
System info: host: 'ICPL12779', ip: '172.17.155.113', os.name: 'Windows 10', os.arch: 'amd64', os.version: '10.0', java.version: '1.8.0_161'
Driver info: com.qmetry.qaf.automation.ui.webdriver.QAFExtendedWebDriver
Capabilities [{applicationCacheEnabled=false, rotatable=false, mobileEmulationEnabled=false, networkConnectionEnabled=false, chrome={chromedriverVersion=2.39.562718 (9a2698cba08cf5a471a29d30c8b3e12becabb0e9), userDataDir=C:\Users\DAKSHA~1.SAP\AppData\Local\Temp\scoped_dir3492_23}, takesHeapSnapshot=true, pageLoadStrategy=normal, databaseEnabled=false, handlesAlerts=true, hasTouchScreen=false, version=67.0.3396.99, platform=XP, browserConnectionEnabled=false, nativeEvents=true, acceptSslCerts=false, acceptInsecureCerts=false, locationContextEnabled=true, webStorageEnabled=true, browserName=chrome, takesScreenshot=true, javascriptEnabled=true, cssSelectorsEnabled=true, setWindowRect=true, unexpectedAlertBehaviour=}]
Session ID: 6ebaae5517c9a67ec2121a3d3d212b02
	at sun.reflect.NativeConstructorAccessorImpl.newInstance0(Native Method)
	at sun.reflect.NativeConstructorAccessorImpl.newInstance(NativeConstructorAccessorImpl.java:62)
	at sun.reflect.DelegatingConstructorAccessorImpl.newInstance(DelegatingConstructorAccessorImpl.java:45)
	at java.lang.reflect.Constructor.newInstance(Constructor.java:423)
	at org.openqa.selenium.remote.ErrorHandler.createThrowable(ErrorHandler.java:206)
	at org.openqa.selenium.remote.ErrorHandler.throwIfResponseFailed(ErrorHandler.java:158)
	at org.openqa.selenium.remote.RemoteWebDriver.execute(RemoteWebDriver.java:678)
	at com.qmetry.qaf.automation.ui.webdriver.QAFExtendedWebDriver.executeWitoutLog(QAFExtendedWebDriver.java:256)
	at com.qmetry.qaf.automation.ui.webdriver.QAFExtendedWebElement.execute(QAFExtendedWebElement.java:252)
	at org.openqa.selenium.remote.RemoteWebElement.click(RemoteWebElement.java:85)
	at com.qmetry.qaf.automation.step.CommonStep.click_aroundBody50(CommonStep.java:648)
	at com.qmetry.qaf.automation.step.CommonStep$AjcClosure51.run(CommonStep.java:1)
	at org.aspectj.runtime.reflect.JoinPointImpl.proceed(JoinPointImpl.java:149)
	at com.qmetry.qaf.automation.step.JavaStepReporter$MockJavaStep.doExecute(JavaStepReporter.java:138)
	... 38 more
17:25:54 Completed Teststep: click on {loc} with arguments: [btn.logout.nominationpage]
17:25:54 Failure Teststep: AND user nominate Employee for bright spark
org.openqa.selenium.WebDriverException: unknown error: Element <div title="Log out" id="logout_btn1" class="logout_btn_adjust1 border_left header_logout_container" ng-click="ShellCtrl.logout();">...</div> is not clickable at point (1310, 33). Other element would receive the click: <span ng-bind-html="message.content" class="ng-binding ng-scope">...</span>
  (Session info: chrome=67.0.3396.99)
  (Driver info: chromedriver=2.39.562718 (9a2698cba08cf5a471a29d30c8b3e12becabb0e9),platform=Windows NT 10.0.16299 x86_64) (WARNING: The server did not provide any stacktrace information)
Command duration or timeout: 57 milliseconds
Build info: version: '2.53.0', revision: '35ae25b1534ae328c771e0856c93e187490ca824', time: '2016-03-15 10:43:46'
System info: host: 'ICPL12779', ip: '172.17.155.113', os.name: 'Windows 10', os.arch: 'amd64', os.version: '10.0', java.version: '1.8.0_161'
Driver info: com.qmetry.qaf.automation.ui.webdriver.QAFExtendedWebDriver
Capabilities [{applicationCacheEnabled=false, rotatable=false, mobileEmulationEnabled=false, networkConnectionEnabled=false, chrome={chromedriverVersion=2.39.562718 (9a2698cba08cf5a471a29d30c8b3e12becabb0e9), userDataDir=C:\Users\DAKSHA~1.SAP\AppData\Local\Temp\scoped_dir3492_23}, takesHeapSnapshot=true, pageLoadStrategy=normal, databaseEnabled=false, handlesAlerts=true, hasTouchScreen=false, version=67.0.3396.99, platform=XP, browserConnectionEnabled=false, nativeEvents=true, acceptSslCerts=false, acceptInsecureCerts=false, locationContextEnabled=true, webStorageEnabled=true, browserName=chrome, takesScreenshot=true, javascriptEnabled=true, cssSelectorsEnabled=true, setWindowRect=true, unexpectedAlertBehaviour=}]
Session ID: 6ebaae5517c9a67ec2121a3d3d212b02
	at sun.reflect.NativeConstructorAccessorImpl.newInstance0(Native Method)
	at sun.reflect.NativeConstructorAccessorImpl.newInstance(NativeConstructorAccessorImpl.java:62)
	at sun.reflect.DelegatingConstructorAccessorImpl.newInstance(DelegatingConstructorAccessorImpl.java:45)
	at java.lang.reflect.Constructor.newInstance(Constructor.java:423)
	at org.openqa.selenium.remote.ErrorHandler.createThrowable(ErrorHandler.java:206)
	at org.openqa.selenium.remote.ErrorHandler.throwIfResponseFailed(ErrorHandler.java:158)
	at org.openqa.selenium.remote.RemoteWebDriver.execute(RemoteWebDriver.java:678)
	at com.qmetry.qaf.automation.ui.webdriver.QAFExtendedWebDriver.executeWitoutLog(QAFExtendedWebDriver.java:256)
	at com.qmetry.qaf.automation.ui.webdriver.QAFExtendedWebElement.execute(QAFExtendedWebElement.java:252)
	at org.openqa.selenium.remote.RemoteWebElement.click(RemoteWebElement.java:85)
	at com.qmetry.qaf.automation.step.CommonStep.click_aroundBody50(CommonStep.java:648)
	at com.qmetry.qaf.automation.step.CommonStep$AjcClosure51.run(CommonStep.java:1)
	at org.aspectj.runtime.reflect.JoinPointImpl.proceed(JoinPointImpl.java:149)
	at com.qmetry.qaf.automation.step.JavaStepReporter$MockJavaStep.doExecute(JavaStepReporter.java:138)
	at com.qmetry.qaf.automation.step.BaseTestStep.execute(BaseTestStep.java:149)
	at com.qmetry.qaf.automation.step.JavaStepReporter.javaTestStep(JavaStepReporter.java:88)
	at com.qmetry.qaf.automation.step.CommonStep.click(CommonStep.java:647)
	at com.loginpageactivity.steps.Nomination.user_nominate_Employee_for_bright_spark(Nomination.java:81)
	at sun.reflect.NativeMethodAccessorImpl.invoke0(Native Method)
	at sun.reflect.NativeMethodAccessorImpl.invoke(NativeMethodAccessorImpl.java:62)
	at sun.reflect.DelegatingMethodAccessorImpl.invoke(DelegatingMethodAccessorImpl.java:43)
	at java.lang.reflect.Method.invoke(Method.java:498)
	at com.qmetry.qaf.automation.step.JavaStep.doExecute(JavaStep.java:160)
	at com.qmetry.qaf.automation.step.BaseTestStep.execute(BaseTestStep.java:149)
	at com.qmetry.qaf.automation.step.StringTestStep.execute(StringTestStep.java:134)
	at com.qmetry.qaf.automation.step.client.Scenario.execute(Scenario.java:167)
	at com.qmetry.qaf.automation.step.client.Scenario.scenario(Scenario.java:219)
	at sun.reflect.NativeMethodAccessorImpl.invoke0(Native Method)
	at sun.reflect.NativeMethodAccessorImpl.invoke(NativeMethodAccessorImpl.java:62)
	at sun.reflect.DelegatingMethodAccessorImpl.invoke(DelegatingMethodAccessorImpl.java:43)
	at java.lang.reflect.Method.invoke(Method.java:498)
	at org.testng.internal.MethodInvocationHelper.invokeMethod(MethodInvocationHelper.java:104)
	at org.testng.internal.Invoker.invokeMethod(Invoker.java:645)
	at org.testng.internal.Invoker.invokeTestMethod(Invoker.java:851)
	at org.testng.internal.Invoker.invokeTestMethods(Invoker.java:1177)
	at org.testng.internal.TestMethodWorker.invokeTestMethods(TestMethodWorker.java:129)
	at org.testng.internal.TestMethodWorker.run(TestMethodWorker.java:112)
	at org.testng.TestRunner.privateRun(TestRunner.java:781)
	at org.testng.TestRunner.run(TestRunner.java:635)
	at org.testng.SuiteRunner.runTest(SuiteRunner.java:387)
	at org.testng.SuiteRunner.runSequentially(SuiteRunner.java:382)
	at org.testng.SuiteRunner.privateRun(SuiteRunner.java:340)
	at org.testng.SuiteRunner.run(SuiteRunner.java:289)
	at org.testng.SuiteRunnerWorker.runSuite(SuiteRunnerWorker.java:52)
	at org.testng.SuiteRunnerWorker.run(SuiteRunnerWorker.java:86)
	at org.testng.TestNG.runSuitesSequentially(TestNG.java:1293)
	at org.testng.TestNG.runSuitesLocally(TestNG.java:1218)
	at org.testng.TestNG.runSuites(TestNG.java:1133)
	at org.testng.TestNG.run(TestNG.java:1104)
	at org.testng.remote.AbstractRemoteTestNG.run(AbstractRemoteTestNG.java:114)
	at org.testng.remote.RemoteTestNG.initAndRun(RemoteTestNG.java:251)
	at org.testng.remote.RemoteTestNG.main(RemoteTestNG.java:77)
17:25:54 Completed Teststep: AND user nominate Employee for bright spark
17:25:54 Competed scenario: QEO-1148 with status FAILURE
