16:54:46 scenario.file.loc[Ljava.lang.String;@543e710e
16:54:46 loading BDD file: scenarios/suite1.bdd
16:54:46 total test found: 1
16:54:46 

Executing scenario: QEO-1144 - Verify the functionality of the Login when Username and Password field is empty
16:54:46 pkg: com.qmetry.qaf.automation.step
16:54:46 pkg: com.loginpageactivity
16:54:46 Found duplicate step to load [] with [lower] prority then []
16:54:46 Invoking Teststep: Given user navigate to login page of site
16:55:17 Completed Teststep: Given user navigate to login page of site
16:55:17 Invoking Teststep: When user enter username as '${Blankuser.username}' and password '${Blankuser.password}' both empty with arguments: [${Blankuser.username}, ${Blankuser.password}]
16:55:17 Invoking Teststep: sendKeys {text} into {loc} with arguments: [, txt.password.homepage]
16:55:17 Completed Teststep: sendKeys {text} into {loc} with arguments: [, txt.password.homepage]
16:55:17 Completed Teststep: When user enter username as '' and password '' both empty with arguments: [${Blankuser.username}, ${Blankuser.password}]
16:55:17 Invoking Teststep: AND user should click on login button
16:55:18 Completed Teststep: AND user should click on login button
16:55:18 Invoking Teststep: Then user get error message
16:55:18 Completed Teststep: Then user get error message
16:55:18 Competed scenario: QEO-1144 with status SUCESS
